%!PS-Adobe-3.0 EPSF-3.0
%%Creator: MATLAB, The MathWorks, Inc. Version 7.14.0.739 (R2012a). Operating System: Linux 3.13.0-39-generic #66~precise1-Ubuntu SMP Wed Oct 29 09:59:20 UTC 2014 i686.
%%Title: /home/ggr/Dropbox/Git/figs/conv1.eps
%%CreationDate: 11/08/2014  15:54:07
%%DocumentNeededFonts: Helvetica
%%DocumentProcessColors: Cyan Magenta Yellow Black
%%LanguageLevel: 2
%%Pages: 1
%%BoundingBox:   100   241   509   549
%%EndComments

%%BeginProlog
% MathWorks dictionary
/MathWorks 160 dict begin
% definition operators
/bdef {bind def} bind def
/ldef {load def} bind def
/xdef {exch def} bdef
/xstore {exch store} bdef
% operator abbreviations
/c  /clip ldef
/cc /concat ldef
/cp /closepath ldef
/gr /grestore ldef
/gs /gsave ldef
/mt /moveto ldef
/np /newpath ldef
/cm /currentmatrix ldef
/sm /setmatrix ldef
/rm /rmoveto ldef
/rl /rlineto ldef
/s {show newpath} bdef
/sc {setcmykcolor} bdef
/sr /setrgbcolor ldef
/sg /setgray ldef
/w /setlinewidth ldef
/j /setlinejoin ldef
/cap /setlinecap ldef
/rc {rectclip} bdef
/rf {rectfill} bdef
% page state control
/pgsv () def
/bpage {/pgsv save def} bdef
/epage {pgsv restore} bdef
/bplot /gsave ldef
/eplot {stroke grestore} bdef
% orientation switch
/portraitMode 0 def /landscapeMode 1 def /rotateMode 2 def
% coordinate system mappings
/dpi2point 0 def
% font control
/FontSize 0 def
/FMS {/FontSize xstore findfont [FontSize 0 0 FontSize neg 0 0]
  makefont setfont} bdef
/reencode {exch dup where {pop load} {pop StandardEncoding} ifelse
  exch dup 3 1 roll findfont dup length dict begin
  { 1 index /FID ne {def}{pop pop} ifelse } forall
  /Encoding exch def currentdict end definefont pop} bdef
/isroman {findfont /CharStrings get /Agrave known} bdef
/FMSR {3 1 roll 1 index dup isroman {reencode} {pop pop} ifelse
  exch FMS} bdef
/csm {1 dpi2point div -1 dpi2point div scale neg translate
 dup landscapeMode eq {pop -90 rotate}
  {rotateMode eq {90 rotate} if} ifelse} bdef
% line types: solid, dotted, dashed, dotdash
/SO { [] 0 setdash } bdef
/DO { [.5 dpi2point mul 4 dpi2point mul] 0 setdash } bdef
/DA { [6 dpi2point mul] 0 setdash } bdef
/DD { [.5 dpi2point mul 4 dpi2point mul 6 dpi2point mul 4
  dpi2point mul] 0 setdash } bdef
% macros for lines and objects
/L {lineto stroke} bdef
/MP {3 1 roll moveto 1 sub {rlineto} repeat} bdef
/AP {{rlineto} repeat} bdef
/PDlw -1 def
/W {/PDlw currentlinewidth def setlinewidth} def
/PP {closepath eofill} bdef
/DP {closepath stroke} bdef
/MR {4 -2 roll moveto dup  0 exch rlineto exch 0 rlineto
  neg 0 exch rlineto closepath} bdef
/FR {MR stroke} bdef
/PR {MR fill} bdef
/L1i {{currentfile picstr readhexstring pop} image} bdef
/tMatrix matrix def
/MakeOval {newpath tMatrix currentmatrix pop translate scale
0 0 1 0 360 arc tMatrix setmatrix} bdef
/FO {MakeOval stroke} bdef
/PO {MakeOval fill} bdef
/PD {currentlinewidth 2 div 0 360 arc fill
   PDlw -1 eq not {PDlw w /PDlw -1 def} if} def
/FA {newpath tMatrix currentmatrix pop translate scale
  0 0 1 5 -2 roll arc tMatrix setmatrix stroke} bdef
/PA {newpath tMatrix currentmatrix pop	translate 0 0 moveto scale
  0 0 1 5 -2 roll arc closepath tMatrix setmatrix fill} bdef
/FAn {newpath tMatrix currentmatrix pop translate scale
  0 0 1 5 -2 roll arcn tMatrix setmatrix stroke} bdef
/PAn {newpath tMatrix currentmatrix pop translate 0 0 moveto scale
  0 0 1 5 -2 roll arcn closepath tMatrix setmatrix fill} bdef
/vradius 0 def /hradius 0 def /lry 0 def
/lrx 0 def /uly 0 def /ulx 0 def /rad 0 def
/MRR {/vradius xdef /hradius xdef /lry xdef /lrx xdef /uly xdef
  /ulx xdef newpath tMatrix currentmatrix pop ulx hradius add uly
  vradius add translate hradius vradius scale 0 0 1 180 270 arc 
  tMatrix setmatrix lrx hradius sub uly vradius add translate
  hradius vradius scale 0 0 1 270 360 arc tMatrix setmatrix
  lrx hradius sub lry vradius sub translate hradius vradius scale
  0 0 1 0 90 arc tMatrix setmatrix ulx hradius add lry vradius sub
  translate hradius vradius scale 0 0 1 90 180 arc tMatrix setmatrix
  closepath} bdef
/FRR {MRR stroke } bdef
/PRR {MRR fill } bdef
/MlrRR {/lry xdef /lrx xdef /uly xdef /ulx xdef /rad lry uly sub 2 div def
  newpath tMatrix currentmatrix pop ulx rad add uly rad add translate
  rad rad scale 0 0 1 90 270 arc tMatrix setmatrix lrx rad sub lry rad
  sub translate rad rad scale 0 0 1 270 90 arc tMatrix setmatrix
  closepath} bdef
/FlrRR {MlrRR stroke } bdef
/PlrRR {MlrRR fill } bdef
/MtbRR {/lry xdef /lrx xdef /uly xdef /ulx xdef /rad lrx ulx sub 2 div def
  newpath tMatrix currentmatrix pop ulx rad add uly rad add translate
  rad rad scale 0 0 1 180 360 arc tMatrix setmatrix lrx rad sub lry rad
  sub translate rad rad scale 0 0 1 0 180 arc tMatrix setmatrix
  closepath} bdef
/FtbRR {MtbRR stroke } bdef
/PtbRR {MtbRR fill } bdef
/stri 6 array def /dtri 6 array def
/smat 6 array def /dmat 6 array def
/tmat1 6 array def /tmat2 6 array def /dif 3 array def
/asub {/ind2 exch def /ind1 exch def dup dup
  ind1 get exch ind2 get sub exch } bdef
/tri_to_matrix {
  2 0 asub 3 1 asub 4 0 asub 5 1 asub
  dup 0 get exch 1 get 7 -1 roll astore } bdef
/compute_transform {
  dmat dtri tri_to_matrix tmat1 invertmatrix 
  smat stri tri_to_matrix tmat2 concatmatrix } bdef
/ds {stri astore pop} bdef
/dt {dtri astore pop} bdef
/db {2 copy /cols xdef /rows xdef mul dup 3 mul string
  currentfile 
  3 index 0 eq {/ASCIIHexDecode filter}
  {/ASCII85Decode filter 3 index 2 eq {/RunLengthDecode filter} if }
  ifelse exch readstring pop
  dup 0 3 index getinterval /rbmap xdef
  dup 2 index dup getinterval /gbmap xdef
  1 index dup 2 mul exch getinterval /bbmap xdef pop pop}bdef
/it {gs np dtri aload pop moveto lineto lineto cp c
  cols rows 8 compute_transform 
  rbmap gbmap bbmap true 3 colorimage gr}bdef
/il {newpath moveto lineto stroke}bdef
currentdict end def
%%EndProlog

%%BeginSetup
MathWorks begin

0 cap

end
%%EndSetup

%%Page: 1 1
%%BeginPageSetup
%%PageBoundingBox:   100   241   509   549
MathWorks begin
bpage
%%EndPageSetup

%%BeginObject: obj1
bplot

/dpi2point 12 def
portraitMode 1200 6588 csm

    0     0  4915  3687 rc
85 dict begin %Colortable dictionary
/c0 { 0.000000 0.000000 0.000000 sr} bdef
/c1 { 1.000000 1.000000 1.000000 sr} bdef
/c2 { 0.900000 0.000000 0.000000 sr} bdef
/c3 { 0.000000 0.820000 0.000000 sr} bdef
/c4 { 0.000000 0.000000 0.800000 sr} bdef
/c5 { 0.910000 0.820000 0.320000 sr} bdef
/c6 { 1.000000 0.260000 0.820000 sr} bdef
/c7 { 0.000000 0.820000 0.820000 sr} bdef
c0
1 j
1 sg
   0    0 4916 3688 rf
6 w
0 3004 3004 0 0 -3004 1041 3281 4 MP
PP
-3004 0 0 3004 3004 0 0 -3004 1041 3281 5 MP stroke
4 w
DO
0 sg
1041 3281 mt 1041  277 L
1041  277 mt 1041  277 L
2042 3281 mt 2042  277 L
2042  277 mt 2042  277 L
3044 3281 mt 3044  277 L
3044  277 mt 3044  277 L
4045 3281 mt 4045  277 L
4045  277 mt 4045  277 L
1041 3281 mt 4045 3281 L
4045 3281 mt 4045 3281 L
1041 2947 mt 4045 2947 L
4045 2947 mt 4045 2947 L
1041 2613 mt 4045 2613 L
4045 2613 mt 4045 2613 L
1041 2279 mt 4045 2279 L
4045 2279 mt 4045 2279 L
1041 1945 mt 4045 1945 L
4045 1945 mt 4045 1945 L
1041 1612 mt 4045 1612 L
4045 1612 mt 4045 1612 L
1041 1278 mt 4045 1278 L
4045 1278 mt 4045 1278 L
1041  944 mt 4045  944 L
4045  944 mt 4045  944 L
1041  610 mt 4045  610 L
4045  610 mt 4045  610 L
1041  277 mt 4045  277 L
4045  277 mt 4045  277 L
SO
6 w
1041 3281 mt 4045 3281 L
1041  277 mt 4045  277 L
1041 3281 mt 1041  277 L
4045 3281 mt 4045  277 L
1041 3281 mt 4045 3281 L
1041 3281 mt 1041  277 L
1041 3281 mt 1041 3250 L
1041  277 mt 1041  307 L
%%IncludeResource: font Helvetica
/Helvetica /ISOLatin1Encoding 120 FMSR

 888 3426 mt 
(-4.5) s
2042 3281 mt 2042 3250 L
2042  277 mt 2042  307 L
1939 3426 mt 
(-4) s
3044 3281 mt 3044 3250 L
3044  277 mt 3044  307 L
2891 3426 mt 
(-3.5) s
4045 3281 mt 4045 3250 L
4045  277 mt 4045  307 L
3942 3426 mt 
(-3) s
1041 3281 mt 1071 3281 L
4045 3281 mt 4015 3281 L
 770 3325 mt 
(-2.6) s
1041 2947 mt 1071 2947 L
4045 2947 mt 4015 2947 L
 770 2991 mt 
(-2.4) s
1041 2613 mt 1071 2613 L
4045 2613 mt 4015 2613 L
 770 2657 mt 
(-2.2) s
1041 2279 mt 1071 2279 L
4045 2279 mt 4015 2279 L
 870 2323 mt 
(-2) s
1041 1945 mt 1071 1945 L
4045 1945 mt 4015 1945 L
 770 1989 mt 
(-1.8) s
1041 1612 mt 1071 1612 L
4045 1612 mt 4015 1612 L
 770 1656 mt 
(-1.6) s
1041 1278 mt 1071 1278 L
4045 1278 mt 4015 1278 L
 770 1322 mt 
(-1.4) s
1041  944 mt 1071  944 L
4045  944 mt 4015  944 L
 770  988 mt 
(-1.2) s
1041  610 mt 1071  610 L
4045  610 mt 4015  610 L
 870  654 mt 
(-1) s
1041  277 mt 1071  277 L
4045  277 mt 4015  277 L
 770  321 mt 
(-0.8) s
1041 3281 mt 4045 3281 L
1041  277 mt 4045  277 L
1041 3281 mt 1041  277 L
4045 3281 mt 4045  277 L
gs 1041 277 3005 3005 rc
/c8 { 1.000000 0.000000 0.000000 sr} bdef
c8
-603 436 -603 435 -603 439 -603 439 3989 1194 5 MP stroke
gr

c8
0 j
0 -58 -58 0 0 58 58 0 3960 1165 5 MP
DP
0 -58 -58 0 0 58 58 0 3357 1604 5 MP
DP
0 -58 -58 0 0 58 58 0 2754 2043 5 MP
DP
0 -58 -58 0 0 58 58 0 2151 2478 5 MP
DP
0 -58 -58 0 0 58 58 0 1548 2914 5 MP
DP
gs 1041 277 3005 3005 rc
/c9 { 0.000000 0.000000 1.000000 sr} bdef
c9
-603 248 -603 192 -603 246 -603 210 3989 393 5 MP stroke
gr

c9
  36   36 3989  393 FO
  36   36 3386  603 FO
  36   36 2783  849 FO
  36   36 2180 1041 FO
  36   36 1577 1289 FO
gs 1041 277 3005 3005 rc
gr

0 sg
%%IncludeResource: font Helvetica
/Helvetica /ISOLatin1Encoding 156 FMSR

2168 3595 mt 
(Log10\() s
%%IncludeResource: font Symbol
/Symbol /ISOLatin1Encoding 156 FMSR

2653 3595 mt 
(D) s
%%IncludeResource: font Helvetica
/Helvetica /ISOLatin1Encoding 156 FMSR

2748 3595 mt 
( x\)) s
 680 2287 mt  -90 rotate
(Log10\(L Error\)) s
90 rotate
1863  174 mt 
(Refinamento h, k=2) s
%%IncludeResource: font Helvetica
/Helvetica /ISOLatin1Encoding 120 FMSR

1024 3324 mt 
( ) s
4029  319 mt 
( ) s
1 sg
0 380 658 0 0 -380 2935 2826 4 MP
PP
-658 0 0 380 658 0 0 -380 2935 2826 5 MP stroke
4 w
DO
SO
6 w
0 sg
2935 2826 mt 3593 2826 L
2935 2446 mt 3593 2446 L
2935 2826 mt 2935 2446 L
3593 2826 mt 3593 2446 L
2935 2826 mt 3593 2826 L
2935 2826 mt 2935 2446 L
2935 2826 mt 3593 2826 L
2935 2446 mt 3593 2446 L
2935 2826 mt 2935 2446 L
3593 2826 mt 3593 2446 L
3404 2594 mt 
(L1) s
gs 2935 2446 659 381 rc
c8
360 0 3007 2551 2 MP stroke
gr

c8
0 -58 -58 0 0 58 58 0 3158 2522 5 MP
DP
gs 2935 2446 659 381 rc
gr

0 sg
3404 2763 mt 
(L2) s
gs 2935 2446 659 381 rc
c9
360 0 3007 2720 2 MP stroke
gr

c9
  36   36 3187 2720 FO
gs 2935 2446 659 381 rc
gr


end %%Color Dict

eplot
%%EndObject

epage
end

showpage

%%Trailer
%%EOF
